<svg xmlns="http://www.w3.org/2000/svg" width="50" height="50" viewBox="0 0 50 50">
  <metadata><?xpacket begin="﻿" id="W5M0MpCehiHzreSzNTczkc9d"?>
<x:xmpmeta xmlns:x="adobe:ns:meta/" x:xmptk="Adobe XMP Core 5.6-c140 79.160451, 2017/05/06-01:08:21        ">
   <rdf:RDF xmlns:rdf="http://www.w3.org/1999/02/22-rdf-syntax-ns#">
      <rdf:Description rdf:about=""/>
   </rdf:RDF>
</x:xmpmeta>
                                                                                                    
                                                                                                    
                                                                                                    
                                                                                                    
                                                                                                    
                                                                                                    
                                                                                                    
                                                                                                    
                                                                                                    
                                                                                                    
                                                                                                    
                                                                                                    
                                                                                                    
                                                                                                    
                                                                                                    
                                                                                                    
                                                                                                    
                                                                                                    
                                                                                                    
                                                                                                    
                           
<?xpacket end="w"?></metadata>
<defs>
    <style>
      .cls-1 {
        fill: #FFDB2E;
        fill-rule: evenodd;
      }
    </style>
  </defs>
  <path id="Tvar_7" data-name="Tvar 7" class="cls-1" d="M533,2265h-3v-27a3,3,0,0,0-3-3H516v30h-2v-45a3.006,3.006,0,0,0-3-3H491a3.006,3.006,0,0,0-3,3v45h-3a1,1,0,0,0,0,2h48A1,1,0,0,0,533,2265Zm-12-22h4a1,1,0,0,1,0,2h-4A1,1,0,0,1,521,2243Zm0,8h4a1,1,0,0,1,0,2h-4A1,1,0,0,1,521,2251Zm0,8h4a1,1,0,0,1,0,2h-4A1,1,0,0,1,521,2259Zm-24-34h8a1,1,0,0,1,0,2h-8A1,1,0,0,1,497,2225Zm0,8h8a1,1,0,0,1,0,2h-8A1,1,0,0,1,497,2233Zm0,8h8a1,1,0,0,1,0,2h-8A1,1,0,0,1,497,2241Zm-3,24v-14a2,2,0,0,1,2-2h10a2,2,0,0,1,2,2v14H494Z" transform="translate(-484 -2217)"/>
</svg>
