<svg xmlns="http://www.w3.org/2000/svg" width="50" height="48" viewBox="0 0 50 48">
  <metadata><?xpacket begin="﻿" id="W5M0MpCehiHzreSzNTczkc9d"?>
<x:xmpmeta xmlns:x="adobe:ns:meta/" x:xmptk="Adobe XMP Core 5.6-c140 79.160451, 2017/05/06-01:08:21        ">
   <rdf:RDF xmlns:rdf="http://www.w3.org/1999/02/22-rdf-syntax-ns#">
      <rdf:Description rdf:about=""/>
   </rdf:RDF>
</x:xmpmeta>
                                                                                                    
                                                                                                    
                                                                                                    
                                                                                                    
                                                                                                    
                                                                                                    
                                                                                                    
                                                                                                    
                                                                                                    
                                                                                                    
                                                                                                    
                                                                                                    
                                                                                                    
                                                                                                    
                                                                                                    
                                                                                                    
                                                                                                    
                                                                                                    
                                                                                                    
                                                                                                    
                           
<?xpacket end="w"?></metadata>
<defs>
    <style>
      .cls-1 {
        fill: #FFDB2E;
        fill-rule: evenodd;
      }
    </style>
  </defs>
  <path id="Tvar_10" data-name="Tvar 10" class="cls-1" d="M1093,2244a3.146,3.146,0,0,1-2.89-1.53A5.755,5.755,0,0,0,1085,2240a7.729,7.729,0,0,0-6.05,2.76c-0.82.81-1.27,1.24-1.95,1.24a3.146,3.146,0,0,1-2.89-1.53A5.755,5.755,0,0,0,1069,2240a7.729,7.729,0,0,0-6.05,2.76c-0.82.81-1.27,1.24-1.95,1.24a3.146,3.146,0,0,1-2.89-1.53A5.755,5.755,0,0,0,1053,2240a7.729,7.729,0,0,0-6.05,2.76c-0.82.81-1.27,1.24-1.95,1.24a1,1,0,0,0,0,2,4.634,4.634,0,0,0,3.36-1.83A5.819,5.819,0,0,1,1053,2242a3.829,3.829,0,0,1,3.57,1.75A5.11,5.11,0,0,0,1061,2246a4.634,4.634,0,0,0,3.36-1.83A5.819,5.819,0,0,1,1069,2242a3.829,3.829,0,0,1,3.57,1.75A5.11,5.11,0,0,0,1077,2246a4.634,4.634,0,0,0,3.36-1.83A5.819,5.819,0,0,1,1085,2242a3.829,3.829,0,0,1,3.57,1.75A5.11,5.11,0,0,0,1093,2246,1,1,0,0,0,1093,2244Zm-4,4h-40a3,3,0,0,0,0,6h40A3,3,0,0,0,1089,2248Zm-11,12-6-4h-26c-0.09-.09-0.09.84-0.08,4.05a8,8,0,0,0,8,7.95H1084a8,8,0,0,0,8-8v-4h-10Zm-4-40h-10a18,18,0,0,0-18,18h46A18.053,18.053,0,0,0,1074,2220Z" transform="translate(-1044 -2220)"/>
</svg>
