<svg id="Skupina_3" data-name="Skupina 3" xmlns="http://www.w3.org/2000/svg" width="47.062" height="50" viewBox="0 0 47.062 50">
  <metadata><?xpacket begin="﻿" id="W5M0MpCehiHzreSzNTczkc9d"?>
<x:xmpmeta xmlns:x="adobe:ns:meta/" x:xmptk="Adobe XMP Core 5.6-c138 79.159824, 2016/09/14-01:09:01        ">
   <rdf:RDF xmlns:rdf="http://www.w3.org/1999/02/22-rdf-syntax-ns#">
      <rdf:Description rdf:about=""/>
   </rdf:RDF>
</x:xmpmeta>
                                                                                                    
                                                                                                    
                                                                                                    
                                                                                                    
                                                                                                    
                                                                                                    
                                                                                                    
                                                                                                    
                                                                                                    
                                                                                                    
                                                                                                    
                                                                                                    
                                                                                                    
                                                                                                    
                                                                                                    
                                                                                                    
                                                                                                    
                                                                                                    
                                                                                                    
                                                                                                    
                           
<?xpacket end="w"?></metadata>
<defs>
    <style>
      .cls-1 {
        fill: #e074c8;
      }

      .cls-1, .cls-2 {
        fill-rule: evenodd;
      }

      .cls-2 {
        fill: #e4e7eb;
      }
    </style>
  </defs>
  <path id="Tvar_14" data-name="Tvar 14" class="cls-1" d="M845.263,1821a12.642,12.642,0,0,1-7.869-2.54v10.59A10.93,10.93,0,0,1,847.23,1840v1H825.591v-1a10.93,10.93,0,0,1,9.836-10.95V1815a9.82,9.82,0,0,1,7.869-10c4.59-.92,13.688,2.08,17.7-2C861,1809.83,854.935,1821,845.263,1821Z" transform="translate(-813.938 -1791)"/>
  <path id="Tvar_14_kopie" data-name="Tvar 14 kopie" class="cls-2" d="M833.46,1817c-2.13,0-4.514-.14-6.867-0.35a13.946,13.946,0,0,1-12.518-15.8c0.539-3.98,1.61-7.78,3.648-9.85C817.723,1800.58,833.46,1797.08,833.46,1817Z" transform="translate(-813.938 -1791)"/>
</svg>
