<svg id="Skupina_7" data-name="Skupina 7" xmlns="http://www.w3.org/2000/svg" width="46" height="46" viewBox="0 0 46 46">
  <metadata><?xpacket begin="﻿" id="W5M0MpCehiHzreSzNTczkc9d"?>
<x:xmpmeta xmlns:x="adobe:ns:meta/" x:xmptk="Adobe XMP Core 5.6-c138 79.159824, 2016/09/14-01:09:01        ">
   <rdf:RDF xmlns:rdf="http://www.w3.org/1999/02/22-rdf-syntax-ns#">
      <rdf:Description rdf:about=""/>
   </rdf:RDF>
</x:xmpmeta>
                                                                                                    
                                                                                                    
                                                                                                    
                                                                                                    
                                                                                                    
                                                                                                    
                                                                                                    
                                                                                                    
                                                                                                    
                                                                                                    
                                                                                                    
                                                                                                    
                                                                                                    
                                                                                                    
                                                                                                    
                                                                                                    
                                                                                                    
                                                                                                    
                                                                                                    
                                                                                                    
                           
<?xpacket end="w"?></metadata>
<defs>
    <style>
      .cls-1 {
        fill: #e074c8;
      }

      .cls-1, .cls-2 {
        fill-rule: evenodd;
      }

      .cls-2 {
        fill: #e4e7eb;
      }
    </style>
  </defs>
  <path id="Tvar_20" data-name="Tvar 20" class="cls-1" d="M1281,2028a3,3,0,0,1,3-3h2a3,3,0,0,1,3,3v31h-8v-31Zm-14,12a3,3,0,0,1,3-3h2a3,3,0,0,1,3,3v19h-8v-19Z" transform="translate(-1247 -2015)"/>
  <path id="Tvar_20_kopie" data-name="Tvar 20 kopie" class="cls-2" d="M1293,2060a1,1,0,0,1-1,1h-44a1,1,0,0,1-1-1v-44a1,1,0,0,1,2,0v43h4v-9a3,3,0,0,1,3-3h2a3,3,0,0,1,3,3v9h31A1,1,0,0,1,1293,2060Z" transform="translate(-1247 -2015)"/>
</svg>
