<svg xmlns:xlink="http://www.w3.org/1999/xlink" width="1895px" height="1056px" viewBox="0 0 1895 1056" version="1.1" xmlns="http://www.w3.org/2000/svg">
    <defs>
        <filter id="f_multiply" filterUnits="objectBoundingBox" x="0%" y="0%" width="100%" height="100%">
            <feBlend in="SourceGraphic" mode="multiply"/>
            <feBlend in="SourceGraphic" mode="multiply"/>
        </filter>
    </defs>
    <defs>
        <clipPath id="bubble">
            <path fill="#000" d="M809.1,40.6 C671.9,64.8 538,98.5 424.1,147.8 C309.1,197.1 214.1,262 129.1,348 C66.9,410 31.3,466.4 13.4,523.8 C-4.4,580.8 -3.4,638.5 10.2,693.7 C37.6,805 115.3,903.8 173.6,953.5 C231.8,1005.6 275.7,1042.2 349.2,1052.9 C422.4,1063.1 525.9,1047 695.1,981.6 C917.4,901.6 1062.4,925.8 1248.5,961.1 C1341.2,977.4 1444,991.2 1542.3,974.2 C1641.1,956.8 1735.2,908.4 1823.7,792.1 C1871.3,732.8 1889,642.8 1894.2,542.1 C1897.3,441.7 1888.5,330.4 1834.8,235.5 C1781.1,140.5 1682.4,62.1 1500.9,25.6 C1324.6,-11.8 1057.1,-6.8 809.1,40.6 Z"  transform="translate(700,100)" id="Tvar_2"></path>
        </clipPath>
    </defs>
    <defs>
        <linearGradient id="grad1" x1="0%" y1="0%" x2="100%" y2="100%">
            <stop offset="0%" style="stop-color:rgb(0,0,50);stop-opacity:0.08" />
            <stop offset="80%" style="stop-color:rgb(0,0,50);stop-opacity:0" />
            <stop offset="100%" style="stop-color:rgb(0,0,50);stop-opacity:0" />
        </linearGradient>
    </defs>
    <g id="hero-bg" fill="{$color}" fill-rule="nonzero">
        <path d="M809.1,40.6 C671.9,64.8 538,98.5 424.1,147.8 C309.1,197.1 214.1,262 129.1,348 C66.9,410 31.3,466.4 13.4,523.8 C-4.4,580.8 -3.4,638.5 10.2,693.7 C37.6,805 115.3,903.8 173.6,953.5 C231.8,1005.6 275.7,1042.2 349.2,1052.9 C422.4,1063.1 525.9,1047 695.1,981.6 C917.4,901.6 1062.4,925.8 1248.5,961.1 C1341.2,977.4 1444,991.2 1542.3,974.2 C1641.1,956.8 1735.2,908.4 1823.7,792.1 C1871.3,732.8 1889,642.8 1894.2,542.1 C1897.3,441.7 1888.5,330.4 1834.8,235.5 C1781.1,140.5 1682.4,62.1 1500.9,25.6 C1324.6,-11.8 1057.1,-6.8 809.1,40.6 Z"  transform="translate(100,-200)" id="Tvar_2"></path>
    </g>

    <g id="Group-1" clip-path="url(#bubble)" filter="url(#f_multiply)" fill="#FFFFFF" transform="translate(-600,-300)">
        <path fill="url(#grad1)" d="M1732.38563,892.610035 L1948.17141,1108 L2032.63946,1023.5031 L1816.62526,807.541767 L1858.73326,765.747971 L1858.75689,681.726551 L1888.76652,651.685444 L1888.82165,721.391282 L1918.1539,750.293588 L2023.51842,644.756749 L2052,672.928147 C2052,654.79534 2046.65183,592.330206 1996.54914,543.443459 C1940.41301,488.692943 1884.24538,520.699643 1864.88484,540.069493 L1763.15141,641.86927 L1788.45874,667.175979 L1732.38563,723.088875 L1676.39128,667.175979 L1701.69074,641.86927 L1599.95731,540.069493 C1580.60464,520.699643 1524.42126,488.692943 1468.30089,543.459964 C1418.1982,592.330206 1414,654.825205 1414,672.943866 L1441.30798,644.754392 L1546.67249,750.29123 L1576.052,721.054907 L1576.05988,651.685444 L1606.06951,681.726551 L1606.02225,765.560136 L1648.21689,807.558271 L1434.35299,1021.33238 L1518.7344,1105.6163 L1732.38563,892.610035 Z" id="Konik"></path>
        <path fill="url(#grad1)" d="M697.651535,833.866055 L1170.48847,1307 L1355.58509,1121.39118 L882.246506,646.996705 L974.511361,555.190571 L974.5664,370.626026 L1040.31486,304.63356 L1040.44066,457.75335 L1104.71879,521.243635 L1335.59715,289.416809 L1398,351.305289 C1398,311.474847 1386.29234,174.255938 1276.48801,66.8729014 C1153.47974,-53.3937715 1030.41564,16.9134231 987.992075,59.462294 L765.073978,283.087439 L820.525357,338.682722 L697.651535,461.496398 L574.954627,338.674859 L630.387135,283.079576 L407.477686,59.4583622 C365.068279,16.9134231 241.966438,-53.3937715 118.983324,66.9098601 C9.1915748,174.255938 0,311.544833 0,351.343034 L59.8458796,289.419954 L290.710876,521.24678 L355.092786,457.019681 L355.101435,304.639065 L420.875841,370.629958 L420.7579,554.781666 L513.217751,647.033664 L44.602333,1116.62351 L229.492944,1301.76288 L697.651535,833.866055 Z" id="Konik-2"></path>
    </g>




</svg>
