<svg xmlns="http://www.w3.org/2000/svg" width="20" height="17" viewBox="0 0 20 17">
  <metadata><?xpacket begin="﻿" id="W5M0MpCehiHzreSzNTczkc9d"?>
<x:xmpmeta xmlns:x="adobe:ns:meta/" x:xmptk="Adobe XMP Core 5.6-c140 79.160451, 2017/05/06-01:08:21        ">
   <rdf:RDF xmlns:rdf="http://www.w3.org/1999/02/22-rdf-syntax-ns#">
      <rdf:Description rdf:about=""/>
   </rdf:RDF>
</x:xmpmeta>
                                                                                                    
                                                                                                    
                                                                                                    
                                                                                                    
                                                                                                    
                                                                                                    
                                                                                                    
                                                                                                    
                                                                                                    
                                                                                                    
                                                                                                    
                                                                                                    
                                                                                                    
                                                                                                    
                                                                                                    
                                                                                                    
                                                                                                    
                                                                                                    
                                                                                                    
                                                                                                    
                           
<?xpacket end="w"?></metadata>
<defs>
    <style>
      .cls-1 {
        fill: #dfe1e4;
        fill-rule: evenodd;
      }
    </style>
  </defs>
  <path id="_" data-name="“" class="cls-1" d="M308,553.283c0,3.686,2.086,5.717,4.46,5.717a3.881,3.881,0,0,0,3.813-3.987c0-2.256-1.438-3.836-3.453-3.836-0.36,0-.863.075-0.935,0.075,0.216-2.407,2.3-5.416,4.6-7L313.827,542A14.487,14.487,0,0,0,308,553.283Zm11.511,0c0,3.686,2.086,5.717,4.46,5.717a3.942,3.942,0,0,0,3.885-3.987,3.567,3.567,0,0,0-3.525-3.836c-0.36,0-.863.075-0.935,0.075a11.318,11.318,0,0,1,4.6-7L325.338,542A14.487,14.487,0,0,0,319.511,553.283Z" transform="translate(-308 -542)"/>
</svg>
